%YAML 1.1
%TAG !u! tag:unity3d.com,2011:
--- !u!1 &5595138646803459096
GameObject:
  m_ObjectHideFlags: 0
  m_CorrespondingSourceObject: {fileID: 0}
  m_PrefabInstance: {fileID: 0}
  m_PrefabAsset: {fileID: 0}
  serializedVersion: 6
  m_Component:
  - component: {fileID: 2388801436479668050}
  - component: {fileID: 2970855449289206207}
  m_Layer: 0
  m_Name: PuertaArribaAlto
  m_TagString: Untagged
  m_Icon: {fileID: 0}
  m_NavMeshLayer: 0
  m_StaticEditorFlags: 0
  m_IsActive: 1
--- !u!4 &2388801436479668050
Transform:
  m_ObjectHideFlags: 0
  m_CorrespondingSourceObject: {fileID: 0}
  m_PrefabInstance: {fileID: 0}
  m_PrefabAsset: {fileID: 0}
  m_GameObject: {fileID: 5595138646803459096}
  m_LocalRotation: {x: 0, y: 0, z: 0, w: 1}
  m_LocalPosition: {x: 0, y: 0, z: 0}
  m_LocalScale: {x: 1, y: 1, z: 1}
  m_Children:
  - {fileID: 7887320005193062910}
  m_Father: {fileID: 0}
  m_RootOrder: 0
  m_LocalEulerAnglesHint: {x: 0, y: 0, z: 0}
--- !u!114 &2970855449289206207
MonoBehaviour:
  m_ObjectHideFlags: 0
  m_CorrespondingSourceObject: {fileID: 0}
  m_PrefabInstance: {fileID: 0}
  m_PrefabAsset: {fileID: 0}
  m_GameObject: {fileID: 5595138646803459096}
  m_Enabled: 1
  m_EditorHideFlags: 0
  m_Script: {fileID: 11500000, guid: 47c775a725efc9b4c889ad196fbe4781, type: 3}
  m_Name: 
  m_EditorClassIdentifier: 
  width: 4
  heigth: 4
--- !u!64 &7381594818031216346
MeshCollider:
  m_ObjectHideFlags: 0
  m_CorrespondingSourceObject: {fileID: 0}
  m_PrefabInstance: {fileID: 0}
  m_PrefabAsset: {fileID: 0}
  m_GameObject: {fileID: 6570252787254012909}
  m_Material: {fileID: 0}
  m_IsTrigger: 0
  m_Enabled: 1
  serializedVersion: 4
  m_Convex: 0
  m_CookingOptions: 30
  m_Mesh: {fileID: 4105602893859884100, guid: fd55547884cb55a45815e0e58a2ba445, type: 3}
--- !u!1001 &2886762345638720228
PrefabInstance:
  m_ObjectHideFlags: 0
  serializedVersion: 2
  m_Modification:
    m_TransformParent: {fileID: 2388801436479668050}
    m_Modifications:
    - target: {fileID: -4216859302048453862, guid: fd55547884cb55a45815e0e58a2ba445,
        type: 3}
      propertyPath: m_LocalPosition.x
      value: 0
      objectReference: {fileID: 0}
    - target: {fileID: -4216859302048453862, guid: fd55547884cb55a45815e0e58a2ba445,
        type: 3}
      propertyPath: m_LocalPosition.y
      value: 7.5
      objectReference: {fileID: 0}
    - target: {fileID: -4216859302048453862, guid: fd55547884cb55a45815e0e58a2ba445,
        type: 3}
      propertyPath: m_LocalPosition.z
      value: 0
      objectReference: {fileID: 0}
    - target: {fileID: -4216859302048453862, guid: fd55547884cb55a45815e0e58a2ba445,
        type: 3}
      propertyPath: m_LocalRotation.x
      value: -0
      objectReference: {fileID: 0}
    - target: {fileID: -4216859302048453862, guid: fd55547884cb55a45815e0e58a2ba445,
        type: 3}
      propertyPath: m_LocalRotation.y
      value: -0
      objectReference: {fileID: 0}
    - target: {fileID: -4216859302048453862, guid: fd55547884cb55a45815e0e58a2ba445,
        type: 3}
      propertyPath: m_LocalRotation.z
      value: -0
      objectReference: {fileID: 0}
    - target: {fileID: -4216859302048453862, guid: fd55547884cb55a45815e0e58a2ba445,
        type: 3}
      propertyPath: m_LocalRotation.w
      value: 1
      objectReference: {fileID: 0}
    - target: {fileID: -4216859302048453862, guid: fd55547884cb55a45815e0e58a2ba445,
        type: 3}
      propertyPath: m_RootOrder
      value: 0
      objectReference: {fileID: 0}
    - target: {fileID: -4216859302048453862, guid: fd55547884cb55a45815e0e58a2ba445,
        type: 3}
      propertyPath: m_LocalEulerAnglesHint.x
      value: 0
      objectReference: {fileID: 0}
    - target: {fileID: -4216859302048453862, guid: fd55547884cb55a45815e0e58a2ba445,
        type: 3}
      propertyPath: m_LocalEulerAnglesHint.y
      value: 0
      objectReference: {fileID: 0}
    - target: {fileID: -4216859302048453862, guid: fd55547884cb55a45815e0e58a2ba445,
        type: 3}
      propertyPath: m_LocalEulerAnglesHint.z
      value: 0
      objectReference: {fileID: 0}
    - target: {fileID: -927199367670048503, guid: fd55547884cb55a45815e0e58a2ba445,
        type: 3}
      propertyPath: m_Name
      value: PuertaArribaAlto
      objectReference: {fileID: 0}
    m_RemovedComponents: []
  m_SourcePrefab: {fileID: 100100000, guid: fd55547884cb55a45815e0e58a2ba445, type: 3}
--- !u!1 &6570252787254012909 stripped
GameObject:
  m_CorrespondingSourceObject: {fileID: -927199367670048503, guid: fd55547884cb55a45815e0e58a2ba445,
    type: 3}
  m_PrefabInstance: {fileID: 2886762345638720228}
  m_PrefabAsset: {fileID: 0}
--- !u!4 &7887320005193062910 stripped
Transform:
  m_CorrespondingSourceObject: {fileID: -4216859302048453862, guid: fd55547884cb55a45815e0e58a2ba445,
    type: 3}
  m_PrefabInstance: {fileID: 2886762345638720228}
  m_PrefabAsset: {fileID: 0}
