%YAML 1.1
%TAG !u! tag:unity3d.com,2011:
--- !u!64 &8971406753336428901
MeshCollider:
  m_ObjectHideFlags: 0
  m_CorrespondingSourceObject: {fileID: 0}
  m_PrefabInstance: {fileID: 0}
  m_PrefabAsset: {fileID: 0}
  m_GameObject: {fileID: 7853916402329633988}
  m_Material: {fileID: 0}
  m_IsTrigger: 0
  m_Enabled: 1
  serializedVersion: 4
  m_Convex: 0
  m_CookingOptions: 30
  m_Mesh: {fileID: 4105602893859884100, guid: bf9da513dda9fbe48975413f00cc1b98, type: 3}
--- !u!1 &9122557275939954901
GameObject:
  m_ObjectHideFlags: 0
  m_CorrespondingSourceObject: {fileID: 0}
  m_PrefabInstance: {fileID: 0}
  m_PrefabAsset: {fileID: 0}
  serializedVersion: 6
  m_Component:
  - component: {fileID: 3955943725209042751}
  - component: {fileID: 838468530353431191}
  m_Layer: 0
  m_Name: PuertaBajoAlto
  m_TagString: Untagged
  m_Icon: {fileID: 0}
  m_NavMeshLayer: 0
  m_StaticEditorFlags: 0
  m_IsActive: 1
--- !u!4 &3955943725209042751
Transform:
  m_ObjectHideFlags: 0
  m_CorrespondingSourceObject: {fileID: 0}
  m_PrefabInstance: {fileID: 0}
  m_PrefabAsset: {fileID: 0}
  m_GameObject: {fileID: 9122557275939954901}
  m_LocalRotation: {x: 0, y: 0, z: 0, w: 1}
  m_LocalPosition: {x: 0, y: 0, z: 0}
  m_LocalScale: {x: 1, y: 1, z: 1}
  m_Children:
  - {fileID: 6531889084333176535}
  m_Father: {fileID: 0}
  m_RootOrder: 0
  m_LocalEulerAnglesHint: {x: 0, y: 0, z: 0}
--- !u!114 &838468530353431191
MonoBehaviour:
  m_ObjectHideFlags: 0
  m_CorrespondingSourceObject: {fileID: 0}
  m_PrefabInstance: {fileID: 0}
  m_PrefabAsset: {fileID: 0}
  m_GameObject: {fileID: 9122557275939954901}
  m_Enabled: 1
  m_EditorHideFlags: 0
  m_Script: {fileID: 11500000, guid: 47c775a725efc9b4c889ad196fbe4781, type: 3}
  m_Name: 
  m_EditorClassIdentifier: 
  width: 4
  heigth: 4
--- !u!1001 &2296653622923468237
PrefabInstance:
  m_ObjectHideFlags: 0
  serializedVersion: 2
  m_Modification:
    m_TransformParent: {fileID: 3955943725209042751}
    m_Modifications:
    - target: {fileID: -4216859302048453862, guid: bf9da513dda9fbe48975413f00cc1b98,
        type: 3}
      propertyPath: m_LocalPosition.x
      value: 0
      objectReference: {fileID: 0}
    - target: {fileID: -4216859302048453862, guid: bf9da513dda9fbe48975413f00cc1b98,
        type: 3}
      propertyPath: m_LocalPosition.y
      value: 7.5
      objectReference: {fileID: 0}
    - target: {fileID: -4216859302048453862, guid: bf9da513dda9fbe48975413f00cc1b98,
        type: 3}
      propertyPath: m_LocalPosition.z
      value: 0
      objectReference: {fileID: 0}
    - target: {fileID: -4216859302048453862, guid: bf9da513dda9fbe48975413f00cc1b98,
        type: 3}
      propertyPath: m_LocalRotation.x
      value: 6.123234e-17
      objectReference: {fileID: 0}
    - target: {fileID: -4216859302048453862, guid: bf9da513dda9fbe48975413f00cc1b98,
        type: 3}
      propertyPath: m_LocalRotation.y
      value: 1
      objectReference: {fileID: 0}
    - target: {fileID: -4216859302048453862, guid: bf9da513dda9fbe48975413f00cc1b98,
        type: 3}
      propertyPath: m_LocalRotation.z
      value: -6.123234e-17
      objectReference: {fileID: 0}
    - target: {fileID: -4216859302048453862, guid: bf9da513dda9fbe48975413f00cc1b98,
        type: 3}
      propertyPath: m_LocalRotation.w
      value: -6.123234e-17
      objectReference: {fileID: 0}
    - target: {fileID: -4216859302048453862, guid: bf9da513dda9fbe48975413f00cc1b98,
        type: 3}
      propertyPath: m_RootOrder
      value: 0
      objectReference: {fileID: 0}
    - target: {fileID: -4216859302048453862, guid: bf9da513dda9fbe48975413f00cc1b98,
        type: 3}
      propertyPath: m_LocalEulerAnglesHint.x
      value: 0
      objectReference: {fileID: 0}
    - target: {fileID: -4216859302048453862, guid: bf9da513dda9fbe48975413f00cc1b98,
        type: 3}
      propertyPath: m_LocalEulerAnglesHint.y
      value: 0
      objectReference: {fileID: 0}
    - target: {fileID: -4216859302048453862, guid: bf9da513dda9fbe48975413f00cc1b98,
        type: 3}
      propertyPath: m_LocalEulerAnglesHint.z
      value: 0
      objectReference: {fileID: 0}
    - target: {fileID: -927199367670048503, guid: bf9da513dda9fbe48975413f00cc1b98,
        type: 3}
      propertyPath: m_Name
      value: PuertaBajoAlto
      objectReference: {fileID: 0}
    m_RemovedComponents: []
  m_SourcePrefab: {fileID: 100100000, guid: bf9da513dda9fbe48975413f00cc1b98, type: 3}
--- !u!1 &7853916402329633988 stripped
GameObject:
  m_CorrespondingSourceObject: {fileID: -927199367670048503, guid: bf9da513dda9fbe48975413f00cc1b98,
    type: 3}
  m_PrefabInstance: {fileID: 2296653622923468237}
  m_PrefabAsset: {fileID: 0}
--- !u!4 &6531889084333176535 stripped
Transform:
  m_CorrespondingSourceObject: {fileID: -4216859302048453862, guid: bf9da513dda9fbe48975413f00cc1b98,
    type: 3}
  m_PrefabInstance: {fileID: 2296653622923468237}
  m_PrefabAsset: {fileID: 0}
