%YAML 1.1
%TAG !u! tag:unity3d.com,2011:
--- !u!1 &311752085889383227
GameObject:
  m_ObjectHideFlags: 0
  m_CorrespondingSourceObject: {fileID: 0}
  m_PrefabInstance: {fileID: 0}
  m_PrefabAsset: {fileID: 0}
  serializedVersion: 6
  m_Component:
  - component: {fileID: 9220979630180086783}
  - component: {fileID: -7759493306521226669}
  m_Layer: 0
  m_Name: Weco
  m_TagString: Hole
  m_Icon: {fileID: 0}
  m_NavMeshLayer: 0
  m_StaticEditorFlags: 0
  m_IsActive: 1
--- !u!4 &9220979630180086783
Transform:
  m_ObjectHideFlags: 0
  m_CorrespondingSourceObject: {fileID: 0}
  m_PrefabInstance: {fileID: 0}
  m_PrefabAsset: {fileID: 0}
  m_GameObject: {fileID: 311752085889383227}
  m_LocalRotation: {x: 0, y: 0, z: 0, w: 1}
  m_LocalPosition: {x: 0, y: 0, z: 0}
  m_LocalScale: {x: 1, y: 1, z: 1}
  m_Children:
  - {fileID: 8280290208148283815}
  m_Father: {fileID: 0}
  m_RootOrder: 0
  m_LocalEulerAnglesHint: {x: 0, y: 0, z: 0}
--- !u!114 &-7759493306521226669
MonoBehaviour:
  m_ObjectHideFlags: 0
  m_CorrespondingSourceObject: {fileID: 0}
  m_PrefabInstance: {fileID: 0}
  m_PrefabAsset: {fileID: 0}
  m_GameObject: {fileID: 311752085889383227}
  m_Enabled: 1
  m_EditorHideFlags: 0
  m_Script: {fileID: 11500000, guid: 47c775a725efc9b4c889ad196fbe4781, type: 3}
  m_Name: 
  m_EditorClassIdentifier: 
  width: 4
  heigth: 4
--- !u!64 &8192764046558462928
MeshCollider:
  m_ObjectHideFlags: 0
  m_CorrespondingSourceObject: {fileID: 0}
  m_PrefabInstance: {fileID: 0}
  m_PrefabAsset: {fileID: 0}
  m_GameObject: {fileID: 4950258402615104436}
  m_Material: {fileID: 0}
  m_IsTrigger: 1
  m_Enabled: 1
  serializedVersion: 4
  m_Convex: 1
  m_CookingOptions: 30
  m_Mesh: {fileID: -4669020800935709084, guid: 237763ed0959152498fadefb99bd3163, type: 3}
--- !u!114 &6704284882299358111
MonoBehaviour:
  m_ObjectHideFlags: 0
  m_CorrespondingSourceObject: {fileID: 0}
  m_PrefabInstance: {fileID: 0}
  m_PrefabAsset: {fileID: 0}
  m_GameObject: {fileID: 4950258402615104436}
  m_Enabled: 1
  m_EditorHideFlags: 0
  m_Script: {fileID: 11500000, guid: ff6228ab20f506342a79d2d3c6742cfa, type: 3}
  m_Name: 
  m_EditorClassIdentifier: 
--- !u!1001 &4004602614439955133
PrefabInstance:
  m_ObjectHideFlags: 0
  serializedVersion: 2
  m_Modification:
    m_TransformParent: {fileID: 9220979630180086783}
    m_Modifications:
    - target: {fileID: -4216859302048453862, guid: 237763ed0959152498fadefb99bd3163,
        type: 3}
      propertyPath: m_LocalPosition.x
      value: 0
      objectReference: {fileID: 0}
    - target: {fileID: -4216859302048453862, guid: 237763ed0959152498fadefb99bd3163,
        type: 3}
      propertyPath: m_LocalPosition.y
      value: 0.25
      objectReference: {fileID: 0}
    - target: {fileID: -4216859302048453862, guid: 237763ed0959152498fadefb99bd3163,
        type: 3}
      propertyPath: m_LocalPosition.z
      value: 0
      objectReference: {fileID: 0}
    - target: {fileID: -4216859302048453862, guid: 237763ed0959152498fadefb99bd3163,
        type: 3}
      propertyPath: m_LocalRotation.x
      value: -0
      objectReference: {fileID: 0}
    - target: {fileID: -4216859302048453862, guid: 237763ed0959152498fadefb99bd3163,
        type: 3}
      propertyPath: m_LocalRotation.y
      value: -0
      objectReference: {fileID: 0}
    - target: {fileID: -4216859302048453862, guid: 237763ed0959152498fadefb99bd3163,
        type: 3}
      propertyPath: m_LocalRotation.z
      value: -0
      objectReference: {fileID: 0}
    - target: {fileID: -4216859302048453862, guid: 237763ed0959152498fadefb99bd3163,
        type: 3}
      propertyPath: m_LocalRotation.w
      value: 1
      objectReference: {fileID: 0}
    - target: {fileID: -4216859302048453862, guid: 237763ed0959152498fadefb99bd3163,
        type: 3}
      propertyPath: m_RootOrder
      value: 0
      objectReference: {fileID: 0}
    - target: {fileID: -4216859302048453862, guid: 237763ed0959152498fadefb99bd3163,
        type: 3}
      propertyPath: m_LocalEulerAnglesHint.x
      value: 0
      objectReference: {fileID: 0}
    - target: {fileID: -4216859302048453862, guid: 237763ed0959152498fadefb99bd3163,
        type: 3}
      propertyPath: m_LocalEulerAnglesHint.y
      value: 0
      objectReference: {fileID: 0}
    - target: {fileID: -4216859302048453862, guid: 237763ed0959152498fadefb99bd3163,
        type: 3}
      propertyPath: m_LocalEulerAnglesHint.z
      value: 0
      objectReference: {fileID: 0}
    - target: {fileID: -1504981713932161579, guid: 237763ed0959152498fadefb99bd3163,
        type: 3}
      propertyPath: m_Enabled
      value: 0
      objectReference: {fileID: 0}
    - target: {fileID: -927199367670048503, guid: 237763ed0959152498fadefb99bd3163,
        type: 3}
      propertyPath: m_Name
      value: Weco
      objectReference: {fileID: 0}
    - target: {fileID: -927199367670048503, guid: 237763ed0959152498fadefb99bd3163,
        type: 3}
      propertyPath: m_TagString
      value: Hole
      objectReference: {fileID: 0}
    m_RemovedComponents: []
  m_SourcePrefab: {fileID: 100100000, guid: 237763ed0959152498fadefb99bd3163, type: 3}
--- !u!1 &4950258402615104436 stripped
GameObject:
  m_CorrespondingSourceObject: {fileID: -927199367670048503, guid: 237763ed0959152498fadefb99bd3163,
    type: 3}
  m_PrefabInstance: {fileID: 4004602614439955133}
  m_PrefabAsset: {fileID: 0}
--- !u!4 &8280290208148283815 stripped
Transform:
  m_CorrespondingSourceObject: {fileID: -4216859302048453862, guid: 237763ed0959152498fadefb99bd3163,
    type: 3}
  m_PrefabInstance: {fileID: 4004602614439955133}
  m_PrefabAsset: {fileID: 0}
