%YAML 1.1
%TAG !u! tag:unity3d.com,2011:
--- !u!1045 &1
EditorBuildSettings:
  m_ObjectHideFlags: 0
  serializedVersion: 2
  m_Scenes:
  - enabled: 1
    path: Assets/Scenes/Menu.unity
    guid: 44c2b84c8648b43459fd7fe78fb90f61
  - enabled: 1
    path: Assets/Scenes/Nivel 01.unity
    guid: 9fc0d4010bbf28b4594072e72b8655ab
  - enabled: 1
    path: Assets/Scenes/Win.unity
    guid: 11caf21bb94e0b24badeb36534da49d8
  - enabled: 1
    path: Assets/Scenes/Lose.unity
    guid: 98c3dbfb09bc0f447b1aa547291789a9
  m_configObjects: {}
